{
    "LoadingData": "Načítám data…",
    "GolfClub": "Golfový klub",
    "Yes": "Ano",
    "No": "Ne",

    "Menu.Players": "Golfisté",
    "Menu.PlayerSnapshots": "Statistiky federace",
    "Menu.MembershipSnapshots": "Statistiky klubů",
    "Menu.ClubComparison": "Porovnání klubů",

    "Pager.Previous": "Předchozí",
    "Pager.Next": "Další",
    "Pager.Showing": "Zobrazuji",
    "Pager.From": "z",
    "Pager.NoData": "Zadanému filtru neodpovídá žádný záznam",

    "Player.Title": "Golfisté",
    "Player.SubTitle": "Prohledávání hráčské databáze České golfové federace",
    "Player.RegistrationNumber": "Registr. číslo",
    "Player.Home": "Domovský",
    "Player.HomeClub": "Domovský klub",
    "Player.Blocked": "Blokace",
    "Player.Deleted": "Smazaný",

    "Player.Filter.RegistrationNumberOrName": "Jméno nebo registrační číslo",
    "Player.Filter.HandicapFrom": "Hendikep od",
    "Player.Filter.HandicapTo": "Hendikep do",
    "Player.Filter.MembershipsCountFrom": "Počet členství od",
    "Player.Filter.MembershipsCountTo": "Počet členství do",
    "Player.Filter.ShowPlayers": "Zobrazit hráče",

    "Player.Listing.Name": "Jméno",
    "Player.Listing.Handicap": "Hendikep",

    "Player.Detail.Title": "Členství v klubech",
    "Player.Detail.HandicapAbbr": "HCP",

    "Player.HandicapChart.Title": "Vývoj hendikepu",
    "Player.HandicapChart.Season": "Sezóna",
    "Player.HandicapChart.AllSeasons": "Všechny sezóny",

    "PlayerSnapshot.Title": "Statistiky federace",
    "PlayerSnapshot.SubTitle": "Vývoj celkového počtu registrovaných golfistů",

    "PlayerSnapshot.Filter.DateFrom": "Datum od",
    "PlayerSnapshot.Filter.DateTo": "Datum do",
    "PlayerSnapshot.Filter.ShowStatistics": "Zobrazit statistiky",

    "PlayerSnapshot.Chart.Date": "Datum",
    "PlayerSnapshot.Chart.Total": "Celkem",

    "MembershipSnapshot.Title": "Statistiky klubů",
    "MembershipSnapshot.SubTitle": "Vývoj počtu členů vybraného golfového klubu",

    "MembershipSnapshot.Filter.DateFrom": "Datum od",
    "MembershipSnapshot.Filter.DateTo": "Datum do",
    "MembershipSnapshot.Filter.ShowStatistics": "Zobrazit statistiky",

    "MembershipSnapshot.Chart.Date": "Datum",
    "MembershipSnapshot.Chart.Total": "Celkem",
    "MembershipSnapshot.Chart.Home": "Domovský",
    "MembershipSnapshot.Chart.Blocked": "Blokace",

    "ClubComparison.Title": "Porovnání klubů",
    "ClubComparison.SubTitle": "Srovnejte strukturu hráčů dvou vybraných golfových klubů",

    "ClubComparison.Filter.Date": "Datum",
    "ClubComparison.Filter.CompareClubs": "Porovnat kluby",

    "ClubComparison.Chart.HandicapCategories": "Hendikepové kategorie",
    "ClubComparison.Chart.RadarChart": "Radarový graf",
    "ClubComparison.Chart.MembersStructure": "Struktura členů",
    "ClubComparison.Chart.Total": "Celkem",
    "ClubComparison.Chart.Home": "Domovský",
    "ClubComparison.Chart.Blocked": "Blokace",
    "ClubComparison.Chart.NoData": "Kluby není možné porovnat. Pro zadané datum není v databázi dostatek záznamů."
}
